Home Credit Default Risk: Modelling
…
Evaluate Model

Identify best hyperparameters and finalize Workflow

# Collect fold-specific metrics
train_metrics <- xgb_tune_model %>%
  collect_metrics()

cat("Model Training Performance:\n")

Model Training Performance:

print(train_metrics)

# A tibble: 150 × 13
    mtry trees min_n tree_depth learn_rate loss_reduction sample_size .metric   
   <int> <int> <int>      <int>      <dbl>          <dbl>       <dbl> <chr>     
 1    32    69    14          3       1.06           1.90       0.942 accuracy  
 2    32    69    14          3       1.06           1.90       0.942 mn_log_lo…
 3    32    69    14          3       1.06           1.90       0.942 roc_auc   
 4    28    60     9          3       1.07           1.72       0.784 accuracy  
 5    28    60     9          3       1.07           1.72       0.784 mn_log_lo…
 6    28    60     9          3       1.07           1.72       0.784 roc_auc   
 7    26    58     7          3       1.07           1.98       0.924 accuracy  
 8    26    58     7          3       1.07           1.98       0.924 mn_log_lo…
 9    26    58     7          3       1.07           1.98       0.924 roc_auc   
10    15    69    19          3       1.07           5.45       0.958 accuracy  
# ℹ 140 more rows
# ℹ 5 more variables: .estimator <chr>, mean <dbl>, n <int>, std_err <dbl>,
#   .config <chr>
…
